Data Wrangling—R | Felix (Chen-Wei) Yu
…
Recode data values

Value

If in the dataset, a specific value means missing data (e.g., 999), we need to recode it as such before putting the varables in the model

# Include values in the dataset 
temp_df = 
  tibble(Sepal.Length = 999, Sepal.Width = 999, Petal.Length = 999, Petal.Width = 999, Species = "NONE") %>% 
  bind_rows(iris)
temp_df

## # A tibble: 151 × 5
##    Sepal.Length Sepal.Width Petal.Length Petal.Width Species
##           <dbl>       <dbl>        <dbl>       <dbl> <chr>  
##  1        999         999          999         999   NONE   
##  2          5.1         3.5          1.4         0.2 setosa 
##  3          4.9         3            1.4         0.2 setosa 
##  4          4.7         3.2          1.3         0.2 setosa 
##  5          4.6         3.1          1.5         0.2 setosa 
##  6          5           3.6          1.4         0.2 setosa 
##  7          5.4         3.9          1.7         0.4 setosa 
##  8          4.6         3.4          1.4         0.3 setosa 
##  9          5           3.4          1.5         0.2 setosa 
## 10          4.4         2.9          1.4         0.2 setosa 
## # … with 141 more rows

# Recode one variable 
temp_df %>% 
  mutate(Sepal.Length = 
           case_when(Sepal.Length == 999 ~ NaN, 
                     T ~ Sepal.Length))

## # A tibble: 151 × 5
##    Sepal.Length Sepal.Width Petal.Length Petal.Width Species
##           <dbl>       <dbl>        <dbl>       <dbl> <chr>  
##  1        NaN         999          999         999   NONE   
##  2          5.1         3.5          1.4         0.2 setosa 
##  3          4.9         3            1.4         0.2 setosa 
##  4          4.7         3.2          1.3         0.2 setosa 
##  5          4.6         3.1          1.5         0.2 setosa 
##  6          5           3.6          1.4         0.2 setosa 
##  7          5.4         3.9          1.7         0.4 setosa 
##  8          4.6         3.4          1.4         0.3 setosa 
##  9          5           3.4          1.5         0.2 setosa 
## 10          4.4         2.9          1.4         0.2 setosa 
## # … with 141 more rows

## If the vars are character 
temp_df %>% select(Species) %>% 
    mutate(Species = 
           case_when(Species == "NONE" ~ NA_character_, 
                     T ~ Species))

## # A tibble: 151 × 1
##    Species
##    <chr>  
##  1 <NA>   
##  2 setosa 
##  3 setosa 
##  4 setosa 
##  5 setosa 
##  6 setosa 
##  7 setosa 
##  8 setosa 
##  9 setosa 
## 10 setosa 
## # … with 141 more rows

## If the vars are numeric  
temp_df %>% select(-Species) %>% 
  mutate(across(
        .cols = everything(),
        ~recode( ., `999` = NaN)
    ))

## # A tibble: 151 × 4
##    Sepal.Length Sepal.Width Petal.Length Petal.Width
##           <dbl>       <dbl>        <dbl>       <dbl>
##  1        NaN         NaN          NaN         NaN  
##  2          5.1         3.5          1.4         0.2
##  3          4.9         3            1.4         0.2
##  4          4.7         3.2          1.3         0.2
##  5          4.6         3.1          1.5         0.2
##  6          5           3.6          1.4         0.2
##  7          5.4         3.9          1.7         0.4
##  8          4.6         3.4          1.4         0.3
##  9          5           3.4          1.5         0.2
## 10          4.4         2.9          1.4         0.2
## # … with 141 more rows

## Combine 
temp_df %>% 
  mutate(across(.cols = where(is.character), 
                .fns = ~recode( ., "NONE" = NA_character_))) %>% 
  mutate(across(.cols = where(is.numeric), 
                .fns = ~recode(., `999` = NaN))) 

## # A tibble: 151 × 5
##    Sepal.Length Sepal.Width Petal.Length Petal.Width Species
##           <dbl>       <dbl>        <dbl>       <dbl> <chr>  
##  1        NaN         NaN          NaN         NaN   <NA>   
##  2          5.1         3.5          1.4         0.2 setosa 
##  3          4.9         3            1.4         0.2 setosa 
##  4          4.7         3.2          1.3         0.2 setosa 
##  5          4.6         3.1          1.5         0.2 setosa 
##  6          5           3.6          1.4         0.2 setosa 
##  7          5.4         3.9          1.7         0.4 setosa 
##  8          4.6         3.4          1.4         0.3 setosa 
##  9          5           3.4          1.5         0.2 setosa 
## 10          4.4         2.9          1.4         0.2 setosa 
## # … with 141 more rows
…
